module gd-reports

go 1.18

require (
	github.com/aws/aws-sdk-go-v2 v1.16.5 // indirect
	github.com/aws/aws-sdk-go-v2/config v1.15.10 // indirect
	github.com/aws/aws-sdk-go-v2/credentials v1.12.5 // indirect
	github.com/aws/aws-sdk-go-v2/feature/ec2/imds v1.12.6 // indirect
	github.com/aws/aws-sdk-go-v2/internal/configsources v1.1.12 // indirect
	github.com/aws/aws-sdk-go-v2/internal/endpoints/v2 v2.4.6 // indirect
	github.com/aws/aws-sdk-go-v2/internal/ini v1.3.13 // indirect
	github.com/aws/aws-sdk-go-v2/service/guardduty v1.14.0 // indirect
	github.com/aws/aws-sdk-go-v2/service/internal/presigned-url v1.9.6 // indirect
	github.com/aws/aws-sdk-go-v2/service/sso v1.11.8 // indirect
	github.com/aws/aws-sdk-go-v2/service/sts v1.16.7 // indirect
	github.com/aws/smithy-go v1.11.3 // indirect
	github.com/fsnotify/fsnotify v1.5.4 // indirect
	github.com/hashicorp/hcl v1.0.0 // indirect
	github.com/jedib0t/go-pretty/v6 v6.3.2 // indirect
	github.com/magiconair/properties v1.8.6 // indirect
	github.com/mattn/go-runewidth v0.0.13 // indirect
	github.com/mitchellh/mapstructure v1.5.0 // indirect
	github.com/pelletier/go-toml v1.9.5 // indirect
	github.com/pelletier/go-toml/v2 v2.0.1 // indirect
	github.com/rivo/uniseg v0.2.0 // indirect
	github.com/sirupsen/logrus v1.8.1 // indirect
	github.com/spf13/afero v1.8.2 // indirect
	github.com/spf13/cast v1.5.0 // indirect
	github.com/spf13/jwalterweatherman v1.1.0 // indirect
	github.com/spf13/pflag v1.0.5 // indirect
	github.com/spf13/viper v1.12.0 // indirect
	github.com/subosito/gotenv v1.3.0 // indirect
	golang.org/x/sys v0.0.0-20220520151302-bc2c85ada10a // indirect
	golang.org/x/text v0.3.7 // indirect
	gopkg.in/ini.v1 v1.66.4 // indirect
	gopkg.in/yaml.v2 v2.4.0 // indirect
	gopkg.in/yaml.v3 v3.0.0 // indirect
)
